{
    "csv-parser": {
        "spec": "csv-parser",
        "module": "csv-parser",
        "builtin": false,
        "known": false
    },
    "moment": {
        "spec": "moment",
        "module": "moment",
        "builtin": false,
        "known": false
    }
}