{
    "smxstate": {
        "settings": {
            "renderTimeoutMs": 20000,
            "renderer": "smcat",
            "availableRenderers": [
                "smcat"
            ]
        }
    }
}